%YAML 1.1
---
'123_136_107_127':
- Aididd
'123_136_118_235':
- Aididd
'42_191_220_98':
- Aididd
- SafwanHaziq
'42_191_200_125':
- SafwanHaziq
- Aididd
'123_136_107_150':
- Aididd
'61_6_86_84':
- TheDarkFox
'175_136_57_194':
- azry
'118_101_44_63':
- azmin
'123_136_118_26':
- Aididd
